PFTC Teaching Material - 12 Plant functional trait data
…
trait_imp <- trait_impute(comm = community,
                            traits = traits,
                            scale_hierarchy = c("Gradient", "Site", "Elevation_m", "PlotID"),
                            global = F,
                            taxon_col = "Taxon",
                            trait_col = "Trait",
                            value_col = "Value",
                            abundance_col = "Cover",
                            min_n_in_sample = 2)

CWM <- trait_np_bootstrap(trait_imp, nrep = 100, sample_size = 200)

CWM_moments <- trait_summarise_boot_moments(CWM)
CWM_moments
#> # A tibble: 486 × 18
#> # Groups:   Gradient, Site, Elevation_m, PlotID [81]
#>    Gradient  Site Elevation_m PlotID Trait                 n    mean ci_low_mean
#>    <chr>    <dbl>       <dbl> <chr>  <fct>             <int>   <dbl>       <dbl>
#>  1 B            1        11.1 F      Plant_Height_cm_…   100   3.91        3.73 
#>  2 B            1        11.1 F      Thickness_mm_log    100   0.243       0.239
#>  3 B            1        11.1 F      LDMC                100   0.310       0.304
#>  4 B            1        11.1 F      SLA_cm2_g           100 146.        144.   
#>  5 B            1        11.1 F      C_percent           100  44.3        44.1  
#>  6 B            1        11.1 F      N_percent           100   3.23        3.19 
#>  7 B            1        11.1 B      Plant_Height_cm_…   100   3.73        3.56 
#>  8 B            1        11.1 B      Thickness_mm_log    100   0.243       0.240
#>  9 B            1        11.1 B      LDMC                100   0.285       0.282
#> 10 B            1        11.1 B      SLA_cm2_g           100 175.        174.   
#> # … with 476 more rows, and 10 more variables: ci_high_mean <dbl>, var <dbl>,
#> #   ci_low_var <dbl>, ci_high_var <dbl>, skew <dbl>, ci_low_skew <dbl>,
#> #   ci_high_skew <dbl>, kurt <dbl>, ci_low_kurt <dbl>, ci_high_kurt <dbl>
…
