PFTC Teaching Material - 6 Data curation
…
The dataset has 11345 rows and 15 columns and a number of numeric, character and date variables. It contains measurements of 14 traits from two elevational gradients on Svalbard. The traits were measured on individual plants from 21 different graminoid and forb species. For more information about the sites, traits and measurements see here.

Some manipulation

Let us introduce some errors to the dataset.

The code to do this is hidden. But if you want to replicate the code to introduce errors you can find the code from line 116.

6.3 View dataset

First, we want to have a look at the dataset. By typing raw_traits in the console it will display the first rows and columns of the dataset. Note that the last column and many rows are not shown.

raw_traits
#> # A tibble: 10,298 × 10
#>    Date       Gradient  Site PlotID Individual_nr ID      Taxon    Trait   Value
#>    <chr>      <chr>    <dbl> <chr>          <dbl> <chr>   <chr>    <chr>   <dbl>
#>  1 2018-07-20 B            5 D                  1 AIB1395 saxifra… Plan… 6.5 e+0
#>  2 2018-07-20 B            5 D                  1 AIB1395 saxifra… Wet_… 2.92e-2
#>  3 2018-07-20 B            5 D                  1 AIB1395 saxifra… Dry_… 4   e-3
#>  4 2018-07-20 B            5 D                  1 AIB1395 saxifra… Leaf… 5.66e-1
#>  5 2018-07-20 B            5 D                  1 AIB1395 saxifra… Leaf… 6.75e-1
#>  6 2018-07-20 B            5 D                  1 AIB1395 saxifra… SLA_… 1.69e+2
#>  7 2018-07-20 B            5 D                  1 AIB1395 saxifra… LDMC  1.37e-1
#>  8 2018-07-20 B            5 D                  1 AIB1395 saxifra… C_pe… 3.89e+1
#>  9 2018-07-20 B            5 D                  1 AIB1395 saxifra… N_pe… 1.14e+0
#> 10 2018-07-20 B            5 D                  1 AIB1395 saxifra… CN_r… 3.41e+1
#> # ℹ 10,288 more rows
#> # ℹ 1 more variable: Elevation_m <dbl>
…
