5 Data curation and analysis | PFTC Teaching Material
…
Some manipulation

Let us introduce some errors to the dataset.

The code to do this is hidden.
But if you want to replicate the code to introduce errors you can find the code here (add link!!!).

5.2.3 First check of the dataset

By typing raw_traits in the console it will display the first rows and columns of the dataset.

raw_traits
#> # A tibble: 11,346 × 12
#>    Date       Gradient  Site PlotID Individual_nr ID      Taxon    Trait   Value
#>    <chr>      <chr>    <dbl> <chr>          <dbl> <chr>   <chr>    <chr>   <dbl>
#>  1 2018-07-20 B            5 D                  1 AIB1395 saxifra… Plan… 6.5 e+0
#>  2 2018-07-20 B            5 D                  1 AIB1395 saxifra… Wet_… 2.92e-2
#>  3 2018-07-20 B            5 D                  1 AIB1395 saxifra… Dry_… 4   e-3
#>  4 2018-07-20 B            5 D                  1 AIB1395 saxifra… Leaf… 5.66e-1
#>  5 2018-07-20 B            5 D                  1 AIB1395 saxifra… Leaf… 6.75e-1
#>  6 2018-07-20 B            5 D                  1 AIB1395 saxifra… SLA_… 1.69e+2
#>  7 2018-07-20 B            5 D                  1 AIB1395 saxifra… LDMC  1.37e-1
#>  8 2018-07-20 B            5 D                  1 AIB1395 saxifra… C_pe… 3.89e+1
#>  9 2018-07-20 B            5 D                  1 AIB1395 saxifra… N_pe… 1.14e+0
#> 10 2018-07-20 B            5 D                  1 AIB1395 saxifra… CN_r… 3.41e+1
#> # … with 11,336 more rows, and 3 more variables: Elevation_m <dbl>,
#> #   Latitude_N <dbl>, Longitude_E <dbl>
…
one dataset with information on abundance (e.g. biomass, size, cover, etc.) of the community, which is used to weight species traits by abundance in the community.

one dataset with the traits for each species (or as many species and individuals you have data for) in your community.

The datasets need to be organized in a tidy and long format and certain columns (see below) are required, but the naming of these columns are up to the user.

Let us have a look at these datasets in an example.

The community data should have information the abundance of species in the community.
This dataset will be used to weigh the traits by species abundance.
Note that abundance can also be cover, size, biomass, or something similar.

In this example the contains species names (e.g. Taxon), cover of each species per plot (e.g. Cover) and two columns with information about the hierarchy (i.e. Site and PlotID).

#> # A tibble: 110 × 4
#>    Taxon             Cover Site  PlotID
#>    <chr>             <dbl> <chr> <chr> 
#>  1 alopecurus ovatus   0.5 1     B     
#>  2 alopecurus ovatus   1   1     C     
#>  3 alopecurus ovatus   1   1     D     
#>  4 alopecurus ovatus   2   1     F     
#>  5 alopecurus ovatus   0.1 1     G     
#>  6 bistorta vigdis    10   1     A     
#>  7 bistorta vigdis    25   1     B     
#>  8 bistorta vigdis    10   1     C     
#>  9 bistorta vigdis     2   1     D     
#> 10 bistorta vigdis     1   1     F     
#> # … with 100 more rows

The trait data should contain information about traits and trait values for as many species and individuals in the community data as possible.
The data should be organized in the same way as the community data and should have corresponding columns.
In this example the trait data contains Taxon, Site and PlotID as well as Trait and Value.

#> # A tibble: 749 × 5
#>    Taxon                   Site  PlotID Trait         Value
#>    <chr>                   <chr> <chr>  <chr>         <dbl>
#>  1 saxifraga oppositifolia 1     A      Wet_Mass_g 0.000695
#>  2 bistorta vigdis         1     C      Wet_Mass_g 0.0105  
#>  3 festuca rubra           2     C      Wet_Mass_g 0.00724 
#>  4 bistorta vigdis         1     C      Wet_Mass_g 0.0189  
#>  5 equisetum arvense       1     E      Wet_Mass_g 0.270   
#>  6 bistorta vigdis         1     B      Wet_Mass_g 0.0231  
#>  7 luzula confusa          1     F      Wet_Mass_g 0.0135  
#>  8 alopecurus ovatus       1     G      Wet_Mass_g 0.0234  
#>  9 alopecurus ovatus       1     G      Wet_Mass_g 0.0300  
#> 10 alopecurus ovatus       1     C      Wet_Mass_g 0.0267  
#> # … with 739 more rows
…
    # specifies columns in your data (mandatory)
    abundance_col = "Cover",
    taxon_col = "Taxon",
    trait_col = "Trait",
    value_col = "Value",
    
    # specifies sampling hierarchy
    scale_hierarchy = c("Site", "PlotID"),
    
    # min number of samples
    min_n_in_sample = 9
  )
trait_imputation
#> # A tibble: 4,007 × 12
#> # Groups:   global, Site, PlotID, Trait [28]
#>    Taxon  Cover Site  PlotID global sum_abun Trait   Value n_sample weight level
#>    <chr>  <dbl> <chr> <chr>  <chr>     <dbl> <chr>   <dbl>    <int>  <dbl> <ord>
#>  1 festu…     1 1     A      global     38.2 Wet_… 0.00724       11 0.0909 glob…
#>  2 festu…     1 1     A      global     38.2 Wet_… 0.0160        11 0.0909 glob…
#>  3 festu…     1 1     A      global     38.2 Wet_… 0.00529       11 0.0909 glob…
#>  4 festu…     1 1     A      global     38.2 Wet_… 0.0154        11 0.0909 glob…
#>  5 festu…     1 1     A      global     38.2 Wet_… 0.0066        11 0.0909 glob…
#>  6 festu…     1 1     A      global     38.2 Wet_… 0.00637       11 0.0909 glob…
#>  7 festu…     1 1     A      global     38.2 Wet_… 0.00491       11 0.0909 glob…
#>  8 festu…     1 1     A      global     38.2 Wet_… 0.0132        11 0.0909 glob…
#>  9 festu…     1 1     A      global     38.2 Wet_… 0.0233        11 0.0909 glob…
#> 10 festu…     1 1     A      global     38.2 Wet_… 0.0115        11 0.0909 glob…
#> # … with 3,997 more rows, and 1 more variable: max_n_in_sample <int>
…
The trait values across all individuals in a community are resampled n times (sample_size; the default is 200) to incorporate the full spectrum of trait variation, generating n number (nrep; the default is 100) of trait distributions.

From these trait distributions the happy moments are estimated: mean, variance, skewness and kurtosis.

This function also allows to extract raw distributions by setting the argument raw = TRUE.
The raw data can be useful for visualizing the trait distributions.
If the raw data is extracted, nrep is forced to 1 to avoid memory issues.

# run nonparametric bootstrapping
np_bootstrapped_moments <- trait_np_bootstrap(
  trait_imputation, 
  nrep = 200
  )
np_bootstrapped_moments
#> # A tibble: 5,600 × 9
#> # Groups:   global, Site, PlotID [14]
#>    n     global Site  PlotID Trait             mean   variance skewness kurtosis
#>    <chr> <chr>  <chr> <chr>  <chr>            <dbl>      <dbl>    <dbl>    <dbl>
#>  1 1     global 1     A      Plant_Height_cm 1.62    1.94         2.64     8.79 
#>  2 1     global 1     A      Wet_Mass_g      0.0126  0.0000684    1.22     2.42 
#>  3 1     global 1     B      Plant_Height_cm 1.67    2.48         2.50     7.04 
#>  4 1     global 1     B      Wet_Mass_g      0.0134  0.0000688    1.11     1.55 
#>  5 1     global 1     C      Plant_Height_cm 1.69    1.40         2.62     8.84 
#>  6 1     global 1     C      Wet_Mass_g      0.0151  0.000183     5.82    50.0  
#>  7 1     global 1     D      Plant_Height_cm 1.75    4.30         2.52     6.04 
#>  8 1     global 1     D      Wet_Mass_g      0.0112  0.0000392    2.94    20.6  
#>  9 1     global 1     E      Plant_Height_cm 7.20   18.0          0.153   -0.703
#> 10 1     global 1     E      Wet_Mass_g      0.0170  0.000317     2.55     5.47 
#> # … with 5,590 more rows
One advantage of using a bootstrapping approach, is that we get much more than a mean trait value.
We can also estimate the variance and other moments of these trait distributions.
In traitstrap happy moments can be summarized and the confidence intervals calculated using the trait_summarise_boot_moments function.
The input variable for this function is the output from the nonparametric bootstrapping function (or the parametric bootstrapping function, see below).

The confidence interval can be calculated parametrically, using the mean and standard deviation, or nonparametrically using quantiles.
The default is using the mean and standard deviation (parametric = TRUE) with one standard deviation around each trait moment (sd_mult = 1).
For the nonparametric approach the default is a 0.95 confidence level.

# summarizes bootstrapping output
sum_boot_moment <- trait_summarise_boot_moments(
  np_bootstrapped_moments
  )
sum_boot_moment
#> # A tibble: 28 × 17
#> # Groups:   global, Site, PlotID [14]
#>    global Site  PlotID Trait           n   mean ci_low_mean ci_high_mean     var
#>    <chr>  <chr> <chr>  <chr>       <int>  <dbl>       <dbl>        <dbl>   <dbl>
#>  1 global 1     A      Plant_Heig…   200 1.72        1.60         1.83   2.60e+0
#>  2 global 1     A      Wet_Mass_g    200 0.0120      0.0114       0.0126 6.49e-5
#>  3 global 1     B      Plant_Heig…   200 1.74        1.63         1.85   2.57e+0
#>  4 global 1     B      Wet_Mass_g    200 0.0137      0.0131       0.0142 6.96e-5
#>  5 global 1     C      Plant_Heig…   200 1.72        1.63         1.82   1.88e+0
#>  6 global 1     C      Wet_Mass_g    200 0.0149      0.0142       0.0157 1.27e-4
#>  7 global 1     D      Plant_Heig…   200 1.85        1.72         1.98   4.51e+0
#>  8 global 1     D      Wet_Mass_g    200 0.0118      0.0113       0.0123 4.87e-5
#>  9 global 1     E      Plant_Heig…   200 7.06        6.79         7.33   1.71e+1
#> 10 global 1     E      Wet_Mass_g    200 0.0161      0.0150       0.0172 2.75e-4
#> # … with 18 more rows, and 8 more variables: ci_low_var <dbl>,
#> #   ci_high_var <dbl>, skew <dbl>, ci_low_skew <dbl>, ci_high_skew <dbl>,
#> #   kurt <dbl>, ci_low_kurt <dbl>, ci_high_kurt <dbl>
…
Either a single distribution type can be used for all traits, or traits can be assigned specific distributions types by supplying the function with a named list of traits (e.g. list(height = "normal", mass = "lognormal")).

Currently the function supports normal, log-normal, and beta (values between 0 and 1) distributions.

The function returns a dataframe containing fitted distribution parameters.

# fit distributions
fitted_distributions <- trait_fit_distributions(
  imputed_traits = trait_imputation,
  distribution_type = "lognormal"
  )
#> Warning in .data[["Trait"]] == names(distribution_type)[distribution_type == :
#> longer object length is not a multiple of shorter object length
fitted_distributions
#> # A tibble: 202 × 15
#> # Groups:   global, Site, PlotID, Trait, Taxon, Cover, n_sample [202]
#>    global Site  PlotID Trait  Taxon Cover n_sample distribution_ty…  parm1 parm2
#>    <chr>  <chr> <chr>  <chr>  <chr> <dbl>    <int> <chr>             <dbl> <dbl>
#>  1 global 1     A      Plant… bist…  10         28 lognormal         0.328 0.517
#>  2 global 1     A      Plant… drya…   0.1        9 lognormal         1.04  0.704
#>  3 global 1     A      Plant… fest…   1         11 lognormal         1.61  0.377
#>  4 global 1     A      Plant… luzu…   0.5       15 lognormal         1.50  0.325
#>  5 global 1     A      Plant… luzu…   1         20 lognormal         0.588 0.459
#>  6 global 1     A      Plant… sali…  20         44 lognormal        -0.138 0.931
#>  7 global 1     A      Plant… saxi…   2          6 lognormal         1.13  0.469
#>  8 global 1     A      Plant… saxi…   2          2 lognormal         0.693 0    
#>  9 global 1     A      Plant… sile…   1          3 lognormal        -0.221 0.277
#> 10 global 1     A      Wet_M… bist…  10         29 lognormal        -4.06  0.454
#> # … with 192 more rows, and 5 more variables: sd1 <lgl>, sd2 <lgl>, ks <dbl>,
#> #   cvm <dbl>, ad <dbl>
…
The trait_parametric_bootstrap function is a parametric analogue of the trait_np_bootstrap function.
It takes in fitted trait distributions produced by trait_fit_distributions and randomly samples from among the fitted distributions proportionally to species abundances in the community.

As with trait_np_bootstrap, the number of samples per replicated draw are specified with the parameter sample_size, and the number of replicated draws is specified by the parameter nrep.
The argument raw allows to extract raw distributions (see above).

# run parametric bootstrapping
p_bootstrapped_moments <- trait_parametric_bootstrap(
    fitted_distributions = fitted_distributions, 
    nrep = 200
    )
p_bootstrapped_moments
#> # A tibble: 5,600 × 9
#> # Groups:   global, Site, PlotID, Trait [28]
#>    n     global Site  PlotID Trait             mean   variance skewness kurtosis
#>    <chr> <chr>  <chr> <chr>  <chr>            <dbl>      <dbl>    <dbl>    <dbl>
#>  1 1     global 1     A      Plant_Height_cm 1.77    2.36         1.65     2.49 
#>  2 1     global 1     A      Wet_Mass_g      0.0124  0.0000659    1.68     3.61 
#>  3 1     global 1     B      Plant_Height_cm 1.80    2.26         1.33     1.21 
#>  4 1     global 1     B      Wet_Mass_g      0.0141  0.0000655    1.81     5.62 
#>  5 1     global 1     C      Plant_Height_cm 1.81    1.92         2.09     4.04 
#>  6 1     global 1     C      Wet_Mass_g      0.0140  0.000114     4.93    39.6  
#>  7 1     global 1     D      Plant_Height_cm 1.91    6.34         3.23    13.2  
#>  8 1     global 1     D      Wet_Mass_g      0.0119  0.0000569    3.71    25.7  
#>  9 1     global 1     E      Plant_Height_cm 7.01   15.2          0.177   -0.128
#> 10 1     global 1     E      Wet_Mass_g      0.0176  0.000223     1.97     4.03 
#> # … with 5,590 more rows

The output of trait_parametric_bootstrap can be summarized using trait_summarize_boot_moments (see above).

5.4.7 Extracting raw distributions

In traitstrap both the parametric and nonparametric bootstrapping functions allow returning raw trait distributions.

# run nonparametric bootstrapping
raw_dist_np <- trait_np_bootstrap(
  trait_imputation,
  raw = TRUE
  )
raw_dist_np
#> # A tibble: 5,600 × 13
#> # Groups:   global, Site, PlotID, Trait [28]
#>    n     Taxon    Cover Site  PlotID global sum_abun Trait Value n_sample weight
#>    <chr> <chr>    <dbl> <chr> <chr>  <chr>     <dbl> <chr> <dbl>    <int>  <dbl>
#>  1 1     salix p…    20 1     A      global     38.2 Plan…   2         44  0.455
#>  2 1     salix p…    20 1     A      global     38.2 Plan…   0.8       44  0.455
#>  3 1     bistort…    10 1     A      global     38.2 Plan…   1.1       28  0.357
#>  4 1     salix p…    20 1     A      global     38.2 Plan…   1.5       44  0.455
#>  5 1     salix p…    20 1     A      global     38.2 Plan…   1.1       44  0.455
#>  6 1     bistort…    10 1     A      global     38.2 Plan…   0.8       28  0.357
#>  7 1     salix p…    20 1     A      global     38.2 Plan…   1.1       44  0.455
#>  8 1     salix p…    20 1     A      global     38.2 Plan…   1         44  0.455
#>  9 1     salix p…    20 1     A      global     38.2 Plan…   1.6       44  0.455
#> 10 1     luzula …     1 1     A      global     38.2 Plan…   1.5       20  0.05 
#> # … with 5,590 more rows, and 2 more variables: level <ord>,
#> #   max_n_in_sample <int>
…
